Date,Hour,Courts
Thursday 01 October 2020,15:00,0
Thursday 01 October 2020,16:00,0
Thursday 01 October 2020,17:00,0
Thursday 01 October 2020,18:00,0
Thursday 01 October 2020,19:00,0
Thursday 01 October 2020,20:00,0
Thursday 01 October 2020,21:00,0
Friday 02 October 2020,07:00,1
Friday 02 October 2020,08:00,1
Friday 02 October 2020,09:00,2
Friday 02 October 2020,10:00,2
Friday 02 October 2020,11:00,2
Friday 02 October 2020,12:00,0
Friday 02 October 2020,13:00,0
Friday 02 October 2020,14:00,0
Friday 02 October 2020,15:00,1
Friday 02 October 2020,16:00,0
Friday 02 October 2020,17:00,0
Friday 02 October 2020,18:00,0
Friday 02 October 2020,19:00,0
Friday 02 October 2020,20:00,0
Friday 02 October 2020,21:00,0
Saturday 03 October 2020,08:00,0
Saturday 03 October 2020,09:00,0
Saturday 03 October 2020,10:00,0
Saturday 03 October 2020,11:00,0
Saturday 03 October 2020,12:00,0
Saturday 03 October 2020,13:00,0
Saturday 03 October 2020,14:00,0
Saturday 03 October 2020,15:00,0
Saturday 03 October 2020,16:00,0
Saturday 03 October 2020,17:00,0
Sunday 04 October 2020,08:00,0
Sunday 04 October 2020,09:00,0
Sunday 04 October 2020,10:00,0
Sunday 04 October 2020,11:00,0
Sunday 04 October 2020,12:00,0
Sunday 04 October 2020,13:00,0
Sunday 04 October 2020,14:00,0
Sunday 04 October 2020,15:00,0
Sunday 04 October 2020,16:00,0
Sunday 04 October 2020,17:00,0
Monday 05 October 2020,07:00,1
Monday 05 October 2020,08:00,0
Monday 05 October 2020,09:00,1
Monday 05 October 2020,10:00,1
Monday 05 October 2020,11:00,2
Monday 05 October 2020,12:00,2
Monday 05 October 2020,13:00,2
Monday 05 October 2020,14:00,1
Monday 05 October 2020,15:00,2
Monday 05 October 2020,16:00,1
Monday 05 October 2020,17:00,0
Monday 05 October 2020,18:00,0
Monday 05 October 2020,19:00,0
Monday 05 October 2020,20:00,0
Monday 05 October 2020,21:00,0
Tuesday 06 October 2020,07:00,1
Tuesday 06 October 2020,08:00,1
Tuesday 06 October 2020,09:00,1
Tuesday 06 October 2020,10:00,1
Tuesday 06 October 2020,11:00,1
Tuesday 06 October 2020,12:00,1
Tuesday 06 October 2020,13:00,1
Tuesday 06 October 2020,14:00,1
Tuesday 06 October 2020,15:00,1
Tuesday 06 October 2020,16:00,1
Tuesday 06 October 2020,17:00,2
Tuesday 06 October 2020,18:00,0
Tuesday 06 October 2020,19:00,0
Tuesday 06 October 2020,20:00,0
Tuesday 06 October 2020,21:00,0
